{
    "version": {
        "message": "Version:",
        "description": "Version"
    },
    "title": {
        "message": "Smsonline",
        "description": "Title"
    },
    "form_email": {
        "message": "Votre email",
        "description": "Email form placeholder"
    },
    "password": {
        "message": "Mot de passe",
        "description": "Password form placeholder"
    },
    "login": {
        "message": "Connexion",
        "description": "Login button"
    },
    "logout": {
        "message": "Déconnexion",
        "description": "Logout button"
    },
    "contacts": {
        "message": "contacts",
        "description": "x contacts"
    },
    "messages": {
        "message": "messages",
        "description": "x messages"
    },
    "unread_messages": {
        "message": "messages non lus",
        "description": "x unread messages"
    },
    "website": {
        "message": "Lire mes sms",
        "description": "Link to the website"
    },
    "empty_field": {
        "message": "Vous devez compléter les champs.",
        "description": "Link to the website"
    },
    "bad_credential": {
        "message": "Identifiants erronés",
        "description": "Link to the website"
    },
    "error": {
        "message": "Erreur inconnue",
        "description": "Link to the website"
    },
    "new_sms": {
        "message": "Vous avez un nouveau message.",
        "description": "Notification or new SMS"
    },
    "markasread": {
        "message": "Tout marquer comme lus",
        "description": "Mark all message as read"
    }
}
